{
   "items": [
      {
         "id": "10050",
         "code": "D1064",
         "currencyCode": "USD",
         "discounts": [
            {
               "percentage": 0,
               "termInMonths": 12,
               "rangeMin": 1000,
               "rangeMax": 4999.9999
            },
            {
               "percentage": 15,
               "termInMonths": 12,
               "rangeMin": 24999.9999,
               "rangeMax": 49999.9999
            },
            {
               "percentage": 5,
               "termInMonths": 12,
               "rangeMin": 4999.9999,
               "rangeMax": 9999.9999
            },
            {
               "percentage": 20,
               "termInMonths": 12,
               "rangeMin": 49999.9999,
               "rangeMax": 99999.9999
            },
            {
               "percentage": 10,
               "termInMonths": 12,
               "rangeMin": 9999.9999,
               "rangeMax": 24999.9999
            },
            {
               "percentage": 30,
               "termInMonths": 12,
               "rangeMin": 99999.9999,
               "rangeMax": 999999999999999
            },
            {
               "percentage": 0,
               "termInMonths": 24,
               "rangeMin": 1000,
               "rangeMax": 4999.9999
            },
            {
               "percentage": 20,
               "termInMonths": 24,
               "rangeMin": 24999.9999,
               "rangeMax": 49999.9999
            },
            {
               "percentage": 10,
               "termInMonths": 24,
               "rangeMin": 4999.9999,
               "rangeMax": 9999.9999
            },
            {
               "percentage": 25,
               "termInMonths": 24,
               "rangeMin": 49999.9999,
               "rangeMax": 99999.9999
            },
            {
               "percentage": 15,
               "termInMonths": 24,
               "rangeMin": 9999.9999,
               "rangeMax": 24999.9999
            },
            {
               "percentage": 35,
               "termInMonths": 24,
               "rangeMin": 99999.9999,
               "rangeMax": 999999999999999
            },
            {
               "percentage": 0,
               "termInMonths": 36,
               "rangeMin": 1000,
               "rangeMax": 4999.9999
            },
            {
               "percentage": 25,
               "termInMonths": 36,
               "rangeMin": 24999.9999,
               "rangeMax": 49999.9999
            },
            {
               "percentage": 15,
               "termInMonths": 36,
               "rangeMin": 4999.9999,
               "rangeMax": 9999.9999
            },
            {
               "percentage": 30,
               "termInMonths": 36,
               "rangeMin": 49999.9999,
               "rangeMax": 99999.9999
            },
            {
               "percentage": 20,
               "termInMonths": 36,
               "rangeMin": 9999.9999,
               "rangeMax": 24999.9999
            },
            {
               "percentage": 40,
               "termInMonths": 36,
               "rangeMin": 99999.9999,
               "rangeMax": 999999999999999
            },
            {
               "percentage": 0,
               "termInMonths": 48,
               "rangeMin": 1000,
               "rangeMax": 4999.9999
            },
            {
               "percentage": 30,
               "termInMonths": 48,
               "rangeMin": 24999.9999,
               "rangeMax": 49999.9999
            },
            {
               "percentage": 20,
               "termInMonths": 48,
               "rangeMin": 4999.9999,
               "rangeMax": 9999.9999
            },
            {
               "percentage": 35,
               "termInMonths": 48,
               "rangeMin": 49999.9999,
               "rangeMax": 99999.9999
            },
            {
               "percentage": 25,
               "termInMonths": 48,
               "rangeMin": 9999.9999,
               "rangeMax": 24999.9999
            },
            {
               "percentage": 45,
               "termInMonths": 48,
               "rangeMin": 99999.9999,
               "rangeMax": 999999999999999
            }
         ],
         "canonicalLink": "/itas/.anon/myservices/api/v1/cloudCMDiscounts/10050"
      }
   ],
   "canonicalLink": "/itas/.anon/myservices/api/v1/cloudCMDiscounts",
   "hasMore": false,
   "limit": 100,
   "offset": 0
}
